{
  "content": [
    {
      "id": 6,
      "no": "007",
      "company": "巨象2",
      "name": "Hu666",
      "address": "西湖4",
      "phone": "911"
    },
    {
      "id": 5,
      "no": "0014",
      "company": "company14",
      "name": "Hu14",
      "address": "XiHu14",
      "phone": "11014"
    },
    {
      "id": 4,
      "no": "0013",
      "company": "company13",
      "name": "Hu13",
      "address": "XiHu13",
      "phone": "11013"
    }
  ],
  "pageable": {
    "page": 0,
    "size": 3,
    "sort": {
      "orders": [
        {
          "direction": "DESC",
          "property": "id",
          "ignoreCase": false,
          "nullHandling": "NATIVE",
          "descending": true,
          "ascending": false
        }
      ]
    },
    "offset": 0,
    "pageSize": 3,
    "pageNumber": 0
  },
  "total": 6,
  "totalPages": 2,
  "last": false,
  "totalElements": 6,
  "number": 0,
  "size": 3,
  "sort": {
    "orders": [
      {
        "direction": "DESC",
        "property": "id",
        "ignoreCase": false,
        "nullHandling": "NATIVE",
        "descending": true,
        "ascending": false
      }
    ]
  },
  "first": true,
  "numberOfElements": 3
}